Chapter 7 jsPsychR Admins | jsPsychR manual
…
## 4 ISSUES:
##  - experiment: HRPVB, HRPVBpost 
##  - trialid:    HRPVB_BB, HRPVB_MM, HRPVBpost_BB, HRPVBpost_MM

## 
## ── CHECK duplicates ────────────────────────────────────────────────────────────
## ✔ No duplicated short_name in the Google docs

  # - Tasks with no prepare_TASK() script!
  # - Tasks NOT in Google Doc
  # - Check trialid's are OK
  DF_missing

## $DF_FINAL
## # A tibble: 95 × 9
##    task    missing_script missi…¹ missi…² proto…³ EMAIL.x Nombre Descr…⁴ EMAIL.y
##    <chr>   <chr>          <chr>   <chr>   <chr>   <chr>   <chr>  <chr>   <chr>  
##  1 AIM     <NA>           <NA>    <NA>    12, 17… <NA>    Grupo… Modelo… <NA>   
##  2 Bank    <NA>           <NA>    <NA>    20      <NA>    Detal… Detall… <NA>   
##  3 BART    <NA>           <NA>    <NA>    11, 99… <NA>    Ballo… Medida… <NA>   
##  4 BDI     BDI            <NA>    <NA>    19      <NA>    <NA>   <NA>    joaqui…
##  5 BNT     <NA>           <NA>    <NA>    2, 22,… <NA>    Berli… Breve,… <NA>   
##  6 bRCOPE  <NA>           <NA>    <NA>    999, t… <NA>    Escal… Evalúa… <NA>   
##  7 CAS     <NA>           <NA>    <NA>    8, 999… <NA>    COVID… Evalúa… <NA>   
##  8 CEL     CEL            <NA>    <NA>    test/p… <NA>    Cuest… Mide l… jmoral…
##  9 CIT     CIT            <NA>    <NA>    23, 28… <NA>    Test … Prueba… buitra…
## 10 Consent <NA>           <NA>    <NA>    10, 11… <NA>    Conse… Consen… <NA>   
## # … with 85 more rows, and abbreviated variable names ¹​missing_googledoc,
## #   ²​missing_task, ³​protocols, ⁴​Descripcion
## # ℹ Use `print(n = ...)` to see more rows
## 
## $DF_missing_tasks
## # A tibble: 0 × 4
## # … with 4 variables: task <chr>, Nombre <chr>, Descripcion <chr>, EMAIL <chr>
## # ℹ Use `colnames()` to see all variable names
## 
## $DF_missing_script
## # A tibble: 24 × 2
##    task                 protocols                                           
##    <chr>                <chr>                                               
##  1 BDI                  19                                                  
##  2 CEL                  test/protocols_DEV/27                               
##  3 CIT                  23, 28, test/protocols_DEV/23, test/protocols_DEV/28
##  4 CRQ                  23, 28, test/protocols_DEV/23, test/protocols_DEV/28
##  5 CTT                  23, 28, test/protocols_DEV/23, test/protocols_DEV/28
##  6 DEMOGRfondecyt2022E1 22, test/protocols_DEV/22                           
##  7 ESV                  test/protocols_DEV/25                               
##  8 faux_pas             13                                                  
##  9 HC                   test/tasks_DEV                                      
## 10 ICvsID               23, 28, test/protocols_DEV/23, test/protocols_DEV/28
## # … with 14 more rows
## # ℹ Use `print(n = ...)` to see more rows
## 
## $DF_missing_googledoc
…
  DF_missing$DF_FINAL %>% tidyr::replace_na(list(missing_script = "", 
                                                 missing_googledoc = "",
                                                 missing_task = ""))

## # A tibble: 95 × 9
##    task    missing_script missi…¹ missi…² proto…³ EMAIL.x Nombre Descr…⁴ EMAIL.y
##    <chr>   <chr>          <chr>   <chr>   <chr>   <chr>   <chr>  <chr>   <chr>  
##  1 AIM     ""             ""      ""      12, 17… <NA>    Grupo… Modelo… <NA>   
##  2 Bank    ""             ""      ""      20      <NA>    Detal… Detall… <NA>   
##  3 BART    ""             ""      ""      11, 99… <NA>    Ballo… Medida… <NA>   
##  4 BDI     "BDI"          ""      ""      19      <NA>    <NA>   <NA>    joaqui…
##  5 BNT     ""             ""      ""      2, 22,… <NA>    Berli… Breve,… <NA>   
##  6 bRCOPE  ""             ""      ""      999, t… <NA>    Escal… Evalúa… <NA>   
##  7 CAS     ""             ""      ""      8, 999… <NA>    COVID… Evalúa… <NA>   
##  8 CEL     "CEL"          ""      ""      test/p… <NA>    Cuest… Mide l… jmoral…
##  9 CIT     "CIT"          ""      ""      23, 28… <NA>    Test … Prueba… buitra…
## 10 Consent ""             ""      ""      10, 11… <NA>    Conse… Consen… <NA>   
## # … with 85 more rows, and abbreviated variable names ¹​missing_googledoc,
## #   ²​missing_task, ³​protocols, ⁴​Descripcion
## # ℹ Use `print(n = ...)` to see more rows

  # Tasks ready to create prepare_*.R script   
  DF_missing$DF_FINAL %>% filter(!is.na(missing_script) & is.na(missing_googledoc))

## # A tibble: 21 × 9
##    task   missing_script missin…¹ missi…² proto…³ EMAIL.x Nombre Descr…⁴ EMAIL.y
##    <chr>  <chr>          <chr>    <chr>   <chr>   <chr>   <chr>  <chr>   <chr>  
##  1 BDI    BDI            <NA>     <NA>    19      <NA>    <NA>   <NA>    joaqui…
##  2 CEL    CEL            <NA>     <NA>    test/p… <NA>    Cuest… Mide l… jmoral…
##  3 CIT    CIT            <NA>     <NA>    23, 28… <NA>    Test … Prueba… buitra…
##  4 CRQ    CRQ            <NA>     <NA>    23, 28… <NA>    Escal… <NA>    buitra…
##  5 CTT    CTT            <NA>     <NA>    23, 28… <NA>    Test … <NA>    buitra…
##  6 ESV    ESV            <NA>     <NA>    test/p… <NA>    Empat… <NA>    altron…
##  7 ICvsID ICvsID         <NA>     <NA>    23, 28… <NA>    Impar… <NA>    buitra…
##  8 ITC    ITC            <NA>     <NA>    15, 99… <NA>    Inter… <NA>    <NA>   
##  9 LOT    LOT            <NA>     <NA>    19      <NA>    <NA>   <NA>    joaqui…
## 10 LSNS   LSNS           <NA>     <NA>    23, te… <NA>    Escal… <NA>    buitra…
## # … with 11 more rows, and abbreviated variable names ¹​missing_googledoc,
## #   ²​missing_task, ³​protocols, ⁴​Descripcion
## # ℹ Use `print(n = ...)` to see more rows

  DF_missing$DF_FINAL %>% filter(!is.na(missing_script) | !is.na(missing_googledoc)) %>% 
    filter(!task %in% c("DEMOGR24", "DEMOGRfondecyt2022E1", "ITC", "fauxPasEv")) %>%  # "MDDF_respaldo", "mic_test", "faux_pas",
    select(-matches("missing"), -Nombre, -Descripcion) 

## # A tibble: 23 × 4
##    task     protocols                                            EMAIL.x EMAIL.y
##    <chr>    <chr>                                                <chr>   <chr>  
##  1 BDI      19                                                   <NA>    joaqui…
##  2 CEL      test/protocols_DEV/27                                <NA>    jmoral…
##  3 CIT      23, 28, test/protocols_DEV/23, test/protocols_DEV/28 <NA>    buitra…
##  4 CRQ      23, 28, test/protocols_DEV/23, test/protocols_DEV/28 <NA>    buitra…
##  5 CTT      23, 28, test/protocols_DEV/23, test/protocols_DEV/28 <NA>    buitra…
##  6 ESV      test/protocols_DEV/25                                <NA>    altron…
##  7 faux_pas 13                                                   <NA>    <NA>   
##  8 HC       test/tasks_DEV                                       <NA>    <NA>   
##  9 ICvsID   23, 28, test/protocols_DEV/23, test/protocols_DEV/28 <NA>    buitra…
## 10 LOT      19                                                   <NA>    joaqui…
## # … with 13 more rows
## # ℹ Use `print(n = ...)` to see more rows
